\relax 
\babel@aux{english}{}
\@writefile{toc}{\contentsline {section}{\numberline {1}Introduction to Time Series}{1}\protected@file@percent }
\@writefile{toc}{\contentsline {subsection}{\numberline {1.1}Stochastic Processes}{1}\protected@file@percent }
\@writefile{toc}{\contentsline {subsection}{\numberline {1.2}Stationarity and Strict Stationarity}{3}\protected@file@percent }
\@writefile{toc}{\contentsline {subsection}{\numberline {1.3}Linear Transformations of Processes}{6}\protected@file@percent }
\@writefile{toc}{\contentsline {section}{\numberline {2}ARMA Processes}{7}\protected@file@percent }
\@writefile{toc}{\contentsline {subsection}{\numberline {2.1}MA Processes}{7}\protected@file@percent }
\@writefile{toc}{\contentsline {subsection}{\numberline {2.2}Spectral Density}{10}\protected@file@percent }
\@writefile{toc}{\contentsline {subsection}{\numberline {2.3}AR Processes}{14}\protected@file@percent }
\@writefile{lof}{\contentsline {figure}{\numberline {1}{\ignorespaces An explosive AR(1) process.}}{16}\protected@file@percent }
